CMTBC_DBC.ZIP.part1	F3C709547611E8043C37924431241C65
CMTBC_DBC.ZIP.part2	C84DB5A2F9B7B2A1EEDF3D422DC45394
CMTBC_DBC.ZIP.part3	7D27DA1502E97A7364A3886080225B3A
CMTBC_DBC.ZIP.part4	EA6346836C73735F24D1AAFF726E9769
CMTBC_DBC.ZIP.part5	F1FAC642C4BA4E8910A8CC520DA7AAF8
CMTBC_DBC.ZIP.part6	4CE73DFD2828910C6EAF45C58357BAFB
